<mxfile host="app.diagrams.net" modified="2021-05-05T17:57:28.552Z" agent="5.0 (X11; Linux x86_64) AppleWebKit/537.36 (KHTML, like Gecko) Chrome/90.0.4430.93 Safari/537.36" etag="-7jtPDo9iyBkNMNZvvsF" version="14.6.10" type="gitlab">
  <diagram id="r6LF3IjvTNQb-wOJogzz" name="Page-1">
    <mxGraphModel dx="677" dy="1568" grid="1" gridSize="10" guides="1" tooltips="1" connect="1" arrows="1" fold="1" page="1" pageScale="1" pageWidth="827" pageHeight="1169" math="0" shadow="0">
      <root>
        <mxCell id="0" />
        <mxCell id="1" parent="0" />
        <mxCell id="WxDdArnUTgGwufQ4IrZg-5" value="" style="rounded=0;whiteSpace=wrap;html=1;" vertex="1" parent="1">
          <mxGeometry x="50" y="55" width="610" height="280" as="geometry" />
        </mxCell>
        <mxCell id="WxDdArnUTgGwufQ4IrZg-20" style="edgeStyle=orthogonalEdgeStyle;rounded=0;orthogonalLoop=1;jettySize=auto;html=1;" edge="1" parent="1" source="WxDdArnUTgGwufQ4IrZg-18" target="WxDdArnUTgGwufQ4IrZg-1">
          <mxGeometry relative="1" as="geometry" />
        </mxCell>
        <mxCell id="WxDdArnUTgGwufQ4IrZg-21" style="edgeStyle=orthogonalEdgeStyle;rounded=0;orthogonalLoop=1;jettySize=auto;html=1;" edge="1" parent="1" source="WxDdArnUTgGwufQ4IrZg-18" target="WxDdArnUTgGwufQ4IrZg-3">
          <mxGeometry relative="1" as="geometry" />
        </mxCell>
        <mxCell id="WxDdArnUTgGwufQ4IrZg-18" value="NGinx" style="rounded=1;whiteSpace=wrap;html=1;" vertex="1" parent="1">
          <mxGeometry x="270" y="-19" width="140" height="60" as="geometry" />
        </mxCell>
        <mxCell id="WxDdArnUTgGwufQ4IrZg-1" value="Saitebooker&lt;br&gt;(master)" style="rounded=0;whiteSpace=wrap;html=1;" vertex="1" parent="1">
          <mxGeometry x="110" y="100" width="120" height="60" as="geometry" />
        </mxCell>
        <mxCell id="WxDdArnUTgGwufQ4IrZg-2" value="saitebooker-export-function&lt;br&gt;(FIREBASE)" style="rounded=0;whiteSpace=wrap;html=1;" vertex="1" parent="1">
          <mxGeometry x="270" y="100" width="120" height="60" as="geometry" />
        </mxCell>
        <mxCell id="WxDdArnUTgGwufQ4IrZg-3" value="saitebooker-editor-typescript&lt;br&gt;(master)" style="rounded=0;whiteSpace=wrap;html=1;" vertex="1" parent="1">
          <mxGeometry x="437" y="100" width="120" height="60" as="geometry" />
        </mxCell>
        <mxCell id="WxDdArnUTgGwufQ4IrZg-4" value="/ redirect /dashboard" style="rounded=0;whiteSpace=wrap;html=1;fillColor=#fff2cc;strokeColor=#d6b656;" vertex="1" parent="1">
          <mxGeometry x="140" y="180" width="70" height="30" as="geometry" />
        </mxCell>
        <mxCell id="WxDdArnUTgGwufQ4IrZg-6" value="" style="aspect=fixed;html=1;points=[];align=center;image;fontSize=12;image=img/lib/mscae/Docker.svg;" vertex="1" parent="1">
          <mxGeometry x="210" y="83.8" width="36.59" height="30" as="geometry" />
        </mxCell>
        <mxCell id="WxDdArnUTgGwufQ4IrZg-7" value="" style="aspect=fixed;html=1;points=[];align=center;image;fontSize=12;image=img/lib/mscae/Docker.svg;" vertex="1" parent="1">
          <mxGeometry x="373.41" y="86.9" width="36.59" height="30" as="geometry" />
        </mxCell>
        <mxCell id="WxDdArnUTgGwufQ4IrZg-8" value="" style="aspect=fixed;html=1;points=[];align=center;image;fontSize=12;image=img/lib/mscae/Docker.svg;" vertex="1" parent="1">
          <mxGeometry x="540" y="83.8" width="36.59" height="30" as="geometry" />
        </mxCell>
        <mxCell id="WxDdArnUTgGwufQ4IrZg-9" value="/health" style="rounded=0;whiteSpace=wrap;html=1;fillColor=#f8cecc;strokeColor=#b85450;" vertex="1" parent="1">
          <mxGeometry x="140" y="220" width="70" height="30" as="geometry" />
        </mxCell>
        <mxCell id="WxDdArnUTgGwufQ4IrZg-10" value="/metrics" style="rounded=0;whiteSpace=wrap;html=1;fillColor=#d5e8d4;strokeColor=#82b366;" vertex="1" parent="1">
          <mxGeometry x="140" y="260" width="70" height="30" as="geometry" />
        </mxCell>
        <mxCell id="WxDdArnUTgGwufQ4IrZg-14" value="/editor" style="rounded=0;whiteSpace=wrap;html=1;fillColor=#fff2cc;strokeColor=#d6b656;" vertex="1" parent="1">
          <mxGeometry x="470" y="180" width="60" height="30" as="geometry" />
        </mxCell>
        <mxCell id="WxDdArnUTgGwufQ4IrZg-15" value="/health" style="rounded=0;whiteSpace=wrap;html=1;fillColor=#f8cecc;strokeColor=#b85450;" vertex="1" parent="1">
          <mxGeometry x="470" y="220" width="60" height="30" as="geometry" />
        </mxCell>
        <mxCell id="WxDdArnUTgGwufQ4IrZg-16" value="/metrics" style="rounded=0;whiteSpace=wrap;html=1;fillColor=#d5e8d4;strokeColor=#82b366;" vertex="1" parent="1">
          <mxGeometry x="470" y="260" width="60" height="30" as="geometry" />
        </mxCell>
        <mxCell id="WxDdArnUTgGwufQ4IrZg-17" value="" style="aspect=fixed;html=1;points=[];align=center;image;fontSize=12;image=img/lib/mscae/Docker.svg;" vertex="1" parent="1">
          <mxGeometry x="390" y="-33" width="40" height="32.8" as="geometry" />
        </mxCell>
        <mxCell id="WxDdArnUTgGwufQ4IrZg-22" value="" style="html=1;dashed=0;whitespace=wrap;fillColor=#2875E2;strokeColor=#ffffff;points=[[0.005,0.63,0],[0.1,0.2,0],[0.9,0.2,0],[0.5,0,0],[0.995,0.63,0],[0.72,0.99,0],[0.5,1,0],[0.28,0.99,0]];shape=mxgraph.kubernetes.icon;prIcon=pod" vertex="1" parent="1">
          <mxGeometry x="90" y="83.8" width="40" height="36.2" as="geometry" />
        </mxCell>
        <mxCell id="WxDdArnUTgGwufQ4IrZg-23" value="" style="html=1;dashed=0;whitespace=wrap;fillColor=#2875E2;strokeColor=#ffffff;points=[[0.005,0.63,0],[0.1,0.2,0],[0.9,0.2,0],[0.5,0,0],[0.995,0.63,0],[0.72,0.99,0],[0.5,1,0],[0.28,0.99,0]];shape=mxgraph.kubernetes.icon;prIcon=pod" vertex="1" parent="1">
          <mxGeometry x="414" y="75.6" width="40" height="36.2" as="geometry" />
        </mxCell>
      </root>
    </mxGraphModel>
  </diagram>
</mxfile>
